// Jest Snapshot v1, https://goo.gl/fbAQLP

exports[`DimensionSelector should render correctly 1`] = `
<section
  className="dimensionSelector"
>
  <Accordion
    className="accordion ui"
  >
    <AccordionTitle
      active={true}
      className="title"
      index={0}
      onClick={[Function]}
    >
      <Icon
        as="i"
        name="dropdown"
      />
      DIMENSION
    </AccordionTitle>
    <AccordionContent
      active={true}
    >
      <p>
        Dimensions
      </p>
    </AccordionContent>
  </Accordion>
</section>
`;
